Report: Fertility
…
Report: Fertility

YOUR NAME

Here weve used the fertility data from the gapminder web site which contains the number of babies born per woman accross countries in the world. The documentation for this data is available here .

First we read in the data and process it, but you will need to make some changes to do the full analysis.

fertility_raw <- readd(fertility_raw)

fertility_raw

## # A tibble: 260 x 217
##    `Total fertilit~ `1800.0` `1801.0` `1802.0` `1803.0` `1804.0` `1805.0`
##    <chr>               <dbl>    <dbl>    <dbl>    <dbl>    <dbl>    <dbl>
##  1 Abkhazia            NA       NA       NA       NA       NA       NA   
##  2 Afghanistan          7        7        7        7        7        7   
##  3 Akrotiri and Dh~    NA       NA       NA       NA       NA       NA   
##  4 Albania              4.6      4.6      4.6      4.6      4.6      4.6 
##  5 Algeria              6.99     6.99     6.99     6.99     6.99     6.99
##  6 American Samoa      NA       NA       NA       NA       NA       NA   
##  7 Andorra             NA       NA       NA       NA       NA       NA   
##  8 Angola               6.93     6.93     6.93     6.93     6.93     6.93
##  9 Anguilla            NA       NA       NA       NA       NA       NA   
## 10 Antigua and Bar~     5        5        4.99     4.99     4.99     4.98
## # ... with 250 more rows, and 210 more variables: `1806.0` <dbl>,
## #   `1807.0` <dbl>, `1808.0` <dbl>, `1809.0` <dbl>, `1810.0` <dbl>,
## #   `1811.0` <dbl>, `1812.0` <dbl>, `1813.0` <dbl>, `1814.0` <dbl>,
## #   `1815.0` <dbl>, `1816.0` <dbl>, `1817.0` <dbl>, `1818.0` <dbl>,
## #   `1819.0` <dbl>, `1820.0` <dbl>, `1821.0` <dbl>, `1822.0` <dbl>,
## #   `1823.0` <dbl>, `1824.0` <dbl>, `1825.0` <dbl>, `1826.0` <dbl>,
## #   `1827.0` <dbl>, `1828.0` <dbl>, `1829.0` <dbl>, `1830.0` <dbl>,
## #   `1831.0` <dbl>, `1832.0` <dbl>, `1833.0` <dbl>, `1834.0` <dbl>,
## #   `1835.0` <dbl>, `1836.0` <dbl>, `1837.0` <dbl>, `1838.0` <dbl>,
…
We then pivot our data into long form and process our data

fertility <- readd(fertility)
fertility

## # A tibble: 17,160 x 4
##    country   year babies_per_woman year1950
##    <chr>    <dbl>            <dbl>    <dbl>
##  1 Abkhazia  1950               NA        0
##  2 Abkhazia  1951               NA        1
##  3 Abkhazia  1952               NA        2
##  4 Abkhazia  1953               NA        3
##  5 Abkhazia  1954               NA        4
##  6 Abkhazia  1955               NA        5
##  7 Abkhazia  1956               NA        6
##  8 Abkhazia  1957               NA        7
##  9 Abkhazia  1958               NA        8
## 10 Abkhazia  1959               NA        9
## # ... with 17,150 more rows
…
